{
  "extract_dir": "",
  "hash": "4315dcb1c36823855423df3c1531e2c3a85c3b99",
  "log_url": "https://storage.googleapis.com/nativeclient-once/log/compiler_rt_bc_arm_bc_06f311029951e49279f93ee6b5d798ffb378921e.log",
  "name": "compiler_rt_bc_arm_bc.tgz",
  "tar_src_dir": "",
  "url": "https://storage.googleapis.com/nativeclient-once/object/compiler_rt_bc_arm_bc_06f311029951e49279f93ee6b5d798ffb378921e.tgz"
}