{
  "extract_dir": "",
  "hash": "4986292a476291d48d0277cef79ce6865e28a1d7",
  "log_url": "https://storage.googleapis.com/nativeclient-once/log/compiler_rt_bc_i686_bc_71090b27cd8b1715e837612db7bb6ae9884eb9b2.log",
  "name": "compiler_rt_bc_i686_bc.tgz",
  "tar_src_dir": "",
  "url": "https://storage.googleapis.com/nativeclient-once/object/compiler_rt_bc_i686_bc_71090b27cd8b1715e837612db7bb6ae9884eb9b2.tgz"
}