{
  "extract_dir": "",
  "hash": "81efd73888ba71afefab6a93f6e9bb2f497ec667",
  "log_url": "https://storage.googleapis.com/nativeclient-once/log/libcxx_i686_bc_2ec9472750ffb4ff9714cfa5c17c933f08f63e9a.log",
  "name": "libcxx_i686_bc.tgz",
  "tar_src_dir": "",
  "url": "https://storage.googleapis.com/nativeclient-once/object/libcxx_i686_bc_2ec9472750ffb4ff9714cfa5c17c933f08f63e9a.tgz"
}