{
  "extract_dir": "",
  "hash": "a2c8a961c59d79669142b1e679c339f16ad8edb8",
  "log_url": "https://storage.googleapis.com/nativeclient-once/log/libcxx_x86_64_bc_cf9a7da4e44786685120a521f6fbbcece2ea177f.log",
  "name": "libcxx_x86_64_bc.tgz",
  "tar_src_dir": "",
  "url": "https://storage.googleapis.com/nativeclient-once/object/libcxx_x86_64_bc_cf9a7da4e44786685120a521f6fbbcece2ea177f.tgz"
}