{
  "extract_dir": "",
  "hash": "de1bee1f5e094f6b3d56dae2c1c8adfddd6558d8",
  "log_url": "https://storage.googleapis.com/nativeclient-once/log/llvm_x86_64_linux_d97c85063737d4200bd6d6a4b6d95a3e360a1351.log",
  "name": "llvm_x86_64_linux.tgz",
  "tar_src_dir": "",
  "url": "https://storage.googleapis.com/nativeclient-once/object/llvm_x86_64_linux_d97c85063737d4200bd6d6a4b6d95a3e360a1351.tgz"
}