{
  "extract_dir": "",
  "hash": "0df66ff6a4844f33dbbfabab18b09cf6128482e3",
  "log_url": "https://storage.googleapis.com/nativeclient-once/log/unsandboxed_runtime_x86_64_linux_39cd59ce6be14ee949c9f430947bd393fb6182e8.log",
  "name": "unsandboxed_runtime_x86_64_linux.tgz",
  "tar_src_dir": "",
  "url": "https://storage.googleapis.com/nativeclient-once/object/unsandboxed_runtime_x86_64_linux_39cd59ce6be14ee949c9f430947bd393fb6182e8.tgz"
}