{
  "extract_dir": "",
  "hash": "1b2b06adb1ea6cb1c33029037886ffb0b5820ccc",
  "log_url": "https://storage.googleapis.com/nativeclient-once/log/unsandboxed_runtime_x86_32_linux_7e9469b5ebd96e40ea3f7b0de93c2361ad06ece3.log",
  "name": "unsandboxed_runtime_x86_32_linux.tgz",
  "tar_src_dir": "",
  "url": "https://storage.googleapis.com/nativeclient-once/object/unsandboxed_runtime_x86_32_linux_7e9469b5ebd96e40ea3f7b0de93c2361ad06ece3.tgz"
}