{
  "extract_dir": "",
  "hash": "fcb607702018d01e900c15a6f982b81887e2a39c",
  "log_url": "https://storage.googleapis.com/nativeclient-once/log/libcxx_arm_bc_e065df6463e4d4c11003308c96636b8d08fa558e.log",
  "name": "libcxx_arm_bc.tgz",
  "tar_src_dir": "",
  "url": "https://storage.googleapis.com/nativeclient-once/object/libcxx_arm_bc_e065df6463e4d4c11003308c96636b8d08fa558e.tgz"
}