{
  "extract_dir": "",
  "hash": "353609eef7ad8823fdd199241aa77bd5c0a484ac",
  "log_url": "https://storage.googleapis.com/nativeclient-once/log/libgcc_eh_mips32_e61ee771bd0bce03cddc84c08710ba8f6a2dff74.log",
  "name": "libgcc_eh_mips32.tgz",
  "tar_src_dir": "",
  "url": "https://storage.googleapis.com/nativeclient-once/object/libgcc_eh_mips32_e61ee771bd0bce03cddc84c08710ba8f6a2dff74.tgz"
}